\relax 
\@writefile{toc}{\contentsline {section}{\numberline {1}Intro}{1}}
\@writefile{toc}{\contentsline {section}{\numberline {2}And furthermore\dots  }{1}}
\@writefile{toc}{\contentsline {section}{\numberline {3}And now for something completely different}{1}}
