This is BibTeX, Version 0.99dThe top-level auxiliary file: Pissin' about in latex.aux
I found no \citation commands---while reading file Pissin' about in latex.aux
I found no \bibdata command---while reading file Pissin' about in latex.aux
I found no \bibstyle command---while reading file Pissin' about in latex.aux
(There were 3 error messages)
